…
``` r
baseline_recruited_df = 
  read_csv("data_mci/MCI_baseline.csv", skip = 1, na = ".") |>   #read the dataset as na
  janitor::clean_names() |>   #clean the names
  mutate(   #mutate sex and apoe4 variables
    sex = replace(sex, sex == 0, "Female"),
    sex = replace(sex, sex == 1, "Male"), 
    apoe4 = replace(apoe4, apoe4 == 1, "Yes"),
    apoe4 = replace(apoe4, apoe4 == 0, "No")
  )  
  filter(baseline_recruited_df, current_age < age_at_onset | is.na(age_at_onset))   #keep the participants who develop or do not develop MCI, i.e. remove the participants who have already developed MCI before the study
```

    ## # A tibble: 479 × 6
    ##       id current_age sex    education apoe4 age_at_onset
    ##    <dbl>       <dbl> <chr>      <dbl> <chr>        <dbl>
    ##  1     1        63.1 Female        16 Yes           NA  
    ##  2     2        65.6 Female        20 Yes           NA  
    ##  3     3        62.5 Male          16 Yes           66.8
    ##  4     4        69.8 Female        16 No            NA  
    ##  5     5        66   Male          16 No            68.7
    ##  6     6        62.5 Male          16 No            NA  
    ##  7     7        66.5 Male          18 No            74  
    ##  8     8        67.2 Female        18 No            NA  
    ##  9     9        66.7 Female        16 No            NA  
    ## 10    10        64.1 Female        18 No            NA  
    ## # ℹ 469 more rows

``` r
Average_age =
  pull(baseline_recruited_df, current_age)
  mean(Average_age)   #calculate the mean of the baseline age
```

    ## [1] 65.04679

``` r
filter(baseline_recruited_df, sex == "Female" & apoe4 == "Yes")   #select females who are apoe4 carriers
```

    ## # A tibble: 63 × 6
    ##       id current_age sex    education apoe4 age_at_onset
    ##    <dbl>       <dbl> <chr>      <dbl> <chr>        <dbl>
    ##  1     1        63.1 Female        16 Yes           NA  
    ##  2     2        65.6 Female        20 Yes           NA  
    ##  3    22        67.3 Female        20 Yes           74.6
    ##  4    26        64.8 Female        20 Yes           71.1
    ##  5    34        64.8 Female        16 Yes           NA  
    ##  6    39        68.3 Female        16 Yes           70.2
    ##  7    43        67.1 Female        16 Yes           71.6
    ##  8    47        66.1 Female        12 Yes           NA  
    ##  9    50        67.6 Female        18 Yes           NA  
    ## 10    52        63.2 Female        16 Yes           NA  
    ## # ℹ 53 more rows

``` r
filter(baseline_recruited_df, sex == "Female")   #select females
```

    ## # A tibble: 211 × 6
    ##       id current_age sex    education apoe4 age_at_onset
    ##    <dbl>       <dbl> <chr>      <dbl> <chr>        <dbl>
    ##  1     1        63.1 Female        16 Yes           NA  
    ##  2     2        65.6 Female        20 Yes           NA  
    ##  3     4        69.8 Female        16 No            NA  
    ##  4     8        67.2 Female        18 No            NA  
    ##  5     9        66.7 Female        16 No            NA  
    ##  6    10        64.1 Female        18 No            NA  
    ##  7    11        69.5 Female        16 No            NA  
    ##  8    12        66.2 Female        18 No            NA  
    ##  9    14        58.4 Female        20 No            66.2
    ## 10    16        64.9 Female        16 No            NA  
    ## # ℹ 201 more rows
…
